EESchema Schematic File Version 4
LIBS:igloo-mezzanine-card-cache
EELAYER 30 0
EELAYER END
$Descr A4 11693 8268
encoding utf-8
Sheet 4 4
Title ""
Date ""
Rev ""
Comp ""
Comment1 ""
Comment2 ""
Comment3 ""
Comment4 ""
$EndDescr
$Comp
L gbtx:igloo U?
U 1 1 5DF60565
P 10000 2600
F 0 "U?" H 9650 2550 50  0000 L CNN
F 1 "igloo" H 10250 2550 50  0000 L CNN
F 2 "" H 10000 2600 50  0001 C CNN
F 3 "" H 10000 2600 50  0001 C CNN
	1    10000 2600
	1    0    0    -1  
$EndComp
$Comp
L gbtx:igloo U?
U 3 1 5DF63522
P 4850 3100
F 0 "U?" H 4500 3050 50  0000 L CNN
F 1 "igloo" H 5050 3050 50  0000 L CNN
F 2 "" H 4850 3100 50  0001 C CNN
F 3 "" H 4850 3100 50  0001 C CNN
	3    4850 3100
	1    0    0    -1  
$EndComp
$Comp
L gbtx:igloo U?
U 4 1 5DF64C8D
P 2150 2500
F 0 "U?" H 1800 2450 50  0000 L CNN
F 1 "igloo" H 2350 2450 50  0000 L CNN
F 2 "" H 2150 2500 50  0001 C CNN
F 3 "" H 2150 2500 50  0001 C CNN
	4    2150 2500
	1    0    0    -1  
$EndComp
Text HLabel 950  4900 0    50   Input ~ 0
VCC1V8
Text HLabel 3650 4900 0    50   Input ~ 0
VCC2V5
Text HLabel 6400 4900 0    50   Input ~ 0
VCC1V8
Text HLabel 8950 4900 0    50   Input ~ 0
VCC2V5
$Comp
L Device:C_Small C?
U 1 1 5DDA265A
P 1150 5000
F 0 "C?" H 1242 5046 50  0000 L CNN
F 1 "1u" H 1242 4955 50  0000 L CNN
F 2 "" H 1150 5000 50  0001 C CNN
F 3 "~" H 1150 5000 50  0001 C CNN
	1    1150 5000
	1    0    0    -1  
$EndComp
$Comp
L Device:C_Small C?
U 1 1 5DDA2C92
P 1400 5000
F 0 "C?" H 1492 5046 50  0000 L CNN
F 1 "10n" H 1492 4955 50  0000 L CNN
F 2 "" H 1400 5000 50  0001 C CNN
F 3 "~" H 1400 5000 50  0001 C CNN
	1    1400 5000
	1    0    0    -1  
$EndComp
$Comp
L Device:C_Small C?
U 1 1 5DDB777F
P 3950 5000
F 0 "C?" H 4042 5046 50  0000 L CNN
F 1 "1u" H 4042 4955 50  0000 L CNN
F 2 "" H 3950 5000 50  0001 C CNN
F 3 "~" H 3950 5000 50  0001 C CNN
	1    3950 5000
	1    0    0    -1  
$EndComp
$Comp
L Device:C_Small C?
U 1 1 5DDB7789
P 4150 5000
F 0 "C?" H 4242 5046 50  0000 L CNN
F 1 "10n" H 4242 4955 50  0000 L CNN
F 2 "" H 4150 5000 50  0001 C CNN
F 3 "~" H 4150 5000 50  0001 C CNN
	1    4150 5000
	1    0    0    -1  
$EndComp
$Comp
L Device:C_Small C?
U 1 1 5DDBA667
P 6500 5000
F 0 "C?" H 6592 5046 50  0000 L CNN
F 1 "1u" H 6592 4955 50  0000 L CNN
F 2 "" H 6500 5000 50  0001 C CNN
F 3 "~" H 6500 5000 50  0001 C CNN
	1    6500 5000
	1    0    0    -1  
$EndComp
$Comp
L Device:C_Small C?
U 1 1 5DDBA671
P 6750 5000
F 0 "C?" H 6842 5046 50  0000 L CNN
F 1 "10n" H 6842 4955 50  0000 L CNN
F 2 "" H 6750 5000 50  0001 C CNN
F 3 "~" H 6750 5000 50  0001 C CNN
	1    6750 5000
	1    0    0    -1  
$EndComp
$Comp
L Device:C_Small C?
U 1 1 5DDBFEFF
P 9200 5000
F 0 "C?" H 9292 5046 50  0000 L CNN
F 1 "1u" H 9292 4955 50  0000 L CNN
F 2 "" H 9200 5000 50  0001 C CNN
F 3 "~" H 9200 5000 50  0001 C CNN
	1    9200 5000
	1    0    0    -1  
$EndComp
$Comp
L Device:C_Small C?
U 1 1 5DDBFF09
P 9400 5000
F 0 "C?" H 9492 5046 50  0000 L CNN
F 1 "10n" H 9492 4955 50  0000 L CNN
F 2 "" H 9400 5000 50  0001 C CNN
F 3 "~" H 9400 5000 50  0001 C CNN
	1    9400 5000
	1    0    0    -1  
$EndComp
Text HLabel 950  5100 0    50   Input ~ 0
GND
Wire Wire Line
	950  4900 1150 4900
Wire Wire Line
	1150 4900 1400 4900
Connection ~ 1150 4900
Wire Wire Line
	1400 4900 1700 4900
Connection ~ 1400 4900
Wire Wire Line
	1400 5100 1150 5100
Wire Wire Line
	950  5100 1150 5100
Connection ~ 1150 5100
Connection ~ 1400 5100
Wire Wire Line
	6500 5100 4150 5100
Wire Wire Line
	6750 5100 6500 5100
Connection ~ 6500 5100
Wire Wire Line
	9400 5100 9200 5100
Wire Wire Line
	9200 5100 6750 5100
Connection ~ 9200 5100
Connection ~ 6750 5100
Wire Wire Line
	6750 4900 6900 4900
Wire Wire Line
	6500 4900 6750 4900
Connection ~ 6750 4900
Wire Wire Line
	6400 4900 6500 4900
Connection ~ 6500 4900
Wire Wire Line
	8950 4900 9200 4900
Wire Wire Line
	9200 4900 9400 4900
Connection ~ 9200 4900
Wire Wire Line
	9400 4900 9550 4900
Connection ~ 9400 4900
Connection ~ 4150 5100
Connection ~ 3950 5100
Wire Wire Line
	3950 5100 4150 5100
Wire Wire Line
	1400 5100 3950 5100
Wire Wire Line
	3650 4900 3950 4900
Wire Wire Line
	3950 4900 4150 4900
Connection ~ 3950 4900
Wire Wire Line
	4150 4900 4400 4900
Connection ~ 4150 4900
Text Notes 4500 2900 0    50   ~ 0
Differential 6 pairs
Text Notes 9650 2500 0    50   ~ 0
Differential 7 pairs
Text Label 3550 3700 0    50   ~ 0
IGLOO_TMS_REM_N
Text Label 3550 3800 0    50   ~ 0
IGLOO_TMS_REM_P
Wire Wire Line
	3550 3800 4400 3800
Wire Wire Line
	4400 3700 3550 3700
Text Label 3550 3900 0    50   ~ 0
IGLOO_TDI_REM_P
Text Label 3550 4000 0    50   ~ 0
IGLOO_TDI_REM_N
Wire Wire Line
	3550 4000 4400 4000
Wire Wire Line
	4400 3900 3550 3900
Text Label 3550 4200 0    50   ~ 0
IGLOO_RST_REM_P
Wire Wire Line
	3550 4200 4400 4200
Wire Wire Line
	4400 4100 3550 4100
Text Label 3550 4100 0    50   ~ 0
IGLOO_RST_REM_N
Text Label 3550 4500 0    50   ~ 0
IGLOO_TCK_REM_P
Wire Wire Line
	3550 4500 4400 4500
Wire Wire Line
	4400 4400 3550 4400
Text Label 3550 4400 0    50   ~ 0
IGLOO_TCK_REM_N
Text Label 3550 4800 0    50   ~ 0
IGLOO_KEY_A_P
Wire Wire Line
	3550 4800 4400 4800
Wire Wire Line
	4400 4700 3550 4700
Text Label 3550 4700 0    50   ~ 0
IGLOO_KEY_A_N
Text Label 8700 3100 0    50   ~ 0
IGLOO_TMS_REM_N
Text Label 8700 3200 0    50   ~ 0
IGLOO_TMS_REM_P
Wire Wire Line
	8700 3200 9550 3200
Wire Wire Line
	9550 3100 8700 3100
Text Label 8700 3300 0    50   ~ 0
IGLOO_TDI_REM_N
Text Label 8700 3400 0    50   ~ 0
IGLOO_TDI_REM_P
Wire Wire Line
	8700 3400 9550 3400
Wire Wire Line
	9550 3300 8700 3300
Text Label 8700 3700 0    50   ~ 0
IGLOO_RST_LOC_N
Wire Wire Line
	8700 3700 9550 3700
Wire Wire Line
	9550 3600 8700 3600
Text Label 8700 3600 0    50   ~ 0
IGLOO_RST_LOC_P
Text Label 8700 4600 0    50   ~ 0
IGLOO_TCK_LOC_N
Wire Wire Line
	8700 4600 9550 4600
Wire Wire Line
	9550 4500 8700 4500
Text Label 8700 4500 0    50   ~ 0
IGLOO_TCK_LOC_P
Text Label 8700 4800 0    50   ~ 0
IGLOO_KEY_B_N
Wire Wire Line
	8700 4800 9550 4800
Wire Wire Line
	9550 4700 8700 4700
Text Label 8700 4700 0    50   ~ 0
IGLOO_KEY_B_P
Text Notes 8350 3250 0    50   ~ 0
U, V ??
Text Label 2400 5750 2    50   ~ 0
IGLOO_TMS_REM_P
Text Label 2400 5950 2    50   ~ 0
IGLOO_TMS_REM_N
Wire Wire Line
	2400 5950 1550 5950
Wire Wire Line
	1550 5750 2400 5750
Text Label 2400 6100 2    50   ~ 0
IGLOO_TDI_REM_P
Text Label 2400 6300 2    50   ~ 0
IGLOO_TDI_REM_N
Wire Wire Line
	2400 6300 1550 6300
Wire Wire Line
	1550 6100 2400 6100
Wire Wire Line
	1550 6450 2400 6450
Text Label 2400 6450 2    50   ~ 0
IGLOO_RST_REM_P
Text Label 2400 7000 2    50   ~ 0
IGLOO_TCK_REM_N
Wire Wire Line
	2400 7000 1550 7000
Wire Wire Line
	1550 6800 2400 6800
Text Label 2400 6800 2    50   ~ 0
IGLOO_TCK_REM_P
Text Label 2400 7350 2    50   ~ 0
IGLOO_KEY_A_N
Wire Wire Line
	2400 7350 1550 7350
Wire Wire Line
	1550 7150 2400 7150
Text Label 2400 7150 2    50   ~ 0
IGLOO_KEY_A_P
Text Label 4550 5750 2    50   ~ 0
IGLOO_TMS_REM_P
Text Label 4550 5950 2    50   ~ 0
IGLOO_TMS_REM_N
Wire Wire Line
	4550 5950 3700 5950
Wire Wire Line
	3700 5750 4550 5750
Text Label 4550 6100 2    50   ~ 0
IGLOO_TDI_REM_P
Text Label 4550 6300 2    50   ~ 0
IGLOO_TDI_REM_N
Wire Wire Line
	4550 6300 3700 6300
Wire Wire Line
	3700 6100 4550 6100
Text Label 4550 6650 2    50   ~ 0
IGLOO_RST_LOC_N
Wire Wire Line
	4550 6650 3700 6650
Wire Wire Line
	3700 6450 4550 6450
Text Label 4550 6450 2    50   ~ 0
IGLOO_RST_LOC_P
Text Label 4550 7000 2    50   ~ 0
IGLOO_TCK_LOC_N
Wire Wire Line
	4550 7000 3700 7000
Wire Wire Line
	3700 6800 4550 6800
Text Label 4550 6800 2    50   ~ 0
IGLOO_TCK_LOC_P
Text Label 4550 7350 2    50   ~ 0
IGLOO_KEY_B_N
Text Label 4550 7150 2    50   ~ 0
IGLOO_KEY_B_P
$Comp
L Device:R_Small R?
U 1 1 5DEE9F96
P 1550 5850
F 0 "R?" H 1609 5896 50  0000 L CNN
F 1 "100" H 1609 5805 50  0000 L CNN
F 2 "" H 1550 5850 50  0001 C CNN
F 3 "~" H 1550 5850 50  0001 C CNN
	1    1550 5850
	1    0    0    -1  
$EndComp
$Comp
L Device:R_Small R?
U 1 1 5DEEC84D
P 1550 6200
F 0 "R?" H 1609 6246 50  0000 L CNN
F 1 "100" H 1609 6155 50  0000 L CNN
F 2 "" H 1550 6200 50  0001 C CNN
F 3 "~" H 1550 6200 50  0001 C CNN
	1    1550 6200
	1    0    0    -1  
$EndComp
$Comp
L Device:R_Small R?
U 1 1 5DEECBFF
P 1550 6550
F 0 "R?" H 1609 6596 50  0000 L CNN
F 1 "100" H 1609 6505 50  0000 L CNN
F 2 "" H 1550 6550 50  0001 C CNN
F 3 "~" H 1550 6550 50  0001 C CNN
	1    1550 6550
	1    0    0    -1  
$EndComp
$Comp
L Device:R_Small R?
U 1 1 5DEECFDD
P 1550 6900
F 0 "R?" H 1609 6946 50  0000 L CNN
F 1 "100" H 1609 6855 50  0000 L CNN
F 2 "" H 1550 6900 50  0001 C CNN
F 3 "~" H 1550 6900 50  0001 C CNN
	1    1550 6900
	1    0    0    -1  
$EndComp
$Comp
L Device:R_Small R?
U 1 1 5DEED33A
P 1550 7250
F 0 "R?" H 1609 7296 50  0000 L CNN
F 1 "100" H 1609 7205 50  0000 L CNN
F 2 "" H 1550 7250 50  0001 C CNN
F 3 "~" H 1550 7250 50  0001 C CNN
	1    1550 7250
	1    0    0    -1  
$EndComp
Wire Wire Line
	2400 6650 1550 6650
Text Label 2400 6650 2    50   ~ 0
IGLOO_RST_REM_N
$Comp
L Device:R_Small R?
U 1 1 5DF28E5E
P 3700 5850
F 0 "R?" H 3759 5896 50  0000 L CNN
F 1 "100" H 3759 5805 50  0000 L CNN
F 2 "" H 3700 5850 50  0001 C CNN
F 3 "~" H 3700 5850 50  0001 C CNN
	1    3700 5850
	1    0    0    -1  
$EndComp
$Comp
L Device:R_Small R?
U 1 1 5DF29392
P 3700 6200
F 0 "R?" H 3759 6246 50  0000 L CNN
F 1 "100" H 3759 6155 50  0000 L CNN
F 2 "" H 3700 6200 50  0001 C CNN
F 3 "~" H 3700 6200 50  0001 C CNN
	1    3700 6200
	1    0    0    -1  
$EndComp
$Comp
L Device:R_Small R?
U 1 1 5DF2A316
P 3700 6550
F 0 "R?" H 3759 6596 50  0000 L CNN
F 1 "100" H 3759 6505 50  0000 L CNN
F 2 "" H 3700 6550 50  0001 C CNN
F 3 "~" H 3700 6550 50  0001 C CNN
	1    3700 6550
	1    0    0    -1  
$EndComp
$Comp
L Device:R_Small R?
U 1 1 5DF2A320
P 3700 6900
F 0 "R?" H 3759 6946 50  0000 L CNN
F 1 "100" H 3759 6855 50  0000 L CNN
F 2 "" H 3700 6900 50  0001 C CNN
F 3 "~" H 3700 6900 50  0001 C CNN
	1    3700 6900
	1    0    0    -1  
$EndComp
$Comp
L Device:R_Small R?
U 1 1 5DF302C2
P 3700 7250
F 0 "R?" H 3759 7296 50  0000 L CNN
F 1 "100" H 3759 7205 50  0000 L CNN
F 2 "" H 3700 7250 50  0001 C CNN
F 3 "~" H 3700 7250 50  0001 C CNN
	1    3700 7250
	1    0    0    -1  
$EndComp
Text HLabel 1350 5750 0    50   Input ~ 0
GBTX_TMS_REM_P
Text HLabel 1350 5950 0    50   Input ~ 0
GBTX_TMS_REM_N
Wire Wire Line
	1350 5950 1550 5950
Connection ~ 1550 5950
Wire Wire Line
	1350 5750 1550 5750
Connection ~ 1550 5750
Text HLabel 1350 6100 0    50   Input ~ 0
GBTX_TDI_REM_P
Text HLabel 1350 6300 0    50   Input ~ 0
GBTX_TDI_REM_N
Wire Wire Line
	1350 6300 1550 6300
Wire Wire Line
	1350 6100 1550 6100
Connection ~ 1550 6100
Connection ~ 1550 6300
Text HLabel 1350 6450 0    50   Input ~ 0
GBTX_RST_REM_P
Text HLabel 1350 6650 0    50   Input ~ 0
GBTX_RST_REM_N
Wire Wire Line
	1350 6650 1550 6650
Wire Wire Line
	1350 6450 1550 6450
Connection ~ 1550 6450
Connection ~ 1550 6650
Text HLabel 1350 6800 0    50   Input ~ 0
GBTX_TCK_REM_P
Text HLabel 1350 7000 0    50   Input ~ 0
GBTX_TCK_REM_N
Wire Wire Line
	1350 7000 1550 7000
Wire Wire Line
	1350 6800 1550 6800
Connection ~ 1550 6800
Connection ~ 1550 7000
Text HLabel 1350 7150 0    50   Input ~ 0
GBTX_KEY_A_P
Text HLabel 1350 7350 0    50   Input ~ 0
GBTX_KEY_A_N
Wire Wire Line
	1350 7350 1550 7350
Wire Wire Line
	1350 7150 1550 7150
Connection ~ 1550 7150
Connection ~ 1550 7350
Text HLabel 3500 5750 0    50   Input ~ 0
GBTX_TMS_LOC_P
Text HLabel 3500 5950 0    50   Input ~ 0
GBTX_TMS_LOC_N
Wire Wire Line
	3500 5950 3700 5950
Wire Wire Line
	3500 5750 3700 5750
Text HLabel 3500 6100 0    50   Input ~ 0
GBTX_TDI_LOC_P
Text HLabel 3500 6300 0    50   Input ~ 0
GBTX_TDI_LOC_N
Wire Wire Line
	3500 6300 3700 6300
Wire Wire Line
	3500 6100 3700 6100
Text HLabel 3500 6450 0    50   Input ~ 0
GBTX_RST_LOC_P
Text HLabel 3500 6650 0    50   Input ~ 0
GBTX_RST_LOC_N
Wire Wire Line
	3500 6650 3700 6650
Wire Wire Line
	3500 6450 3700 6450
Text HLabel 3500 6800 0    50   Input ~ 0
GBTX_TCK_LOC_P
Text HLabel 3500 7000 0    50   Input ~ 0
GBTX_TCK_LOC_N
Wire Wire Line
	3500 7000 3700 7000
Wire Wire Line
	3500 6800 3700 6800
Text HLabel 3500 7150 0    50   Input ~ 0
GBTX_KEY_B_P
Text HLabel 3500 7350 0    50   Input ~ 0
GBTX_KEY_B_N
Connection ~ 3700 5750
Connection ~ 3700 5950
Connection ~ 3700 6100
Connection ~ 3700 6300
Connection ~ 3700 6450
Connection ~ 3700 6650
Connection ~ 3700 6800
Connection ~ 3700 7000
Wire Wire Line
	3500 7350 3700 7350
Wire Wire Line
	3500 7150 3700 7150
Connection ~ 3700 7150
Wire Wire Line
	3700 7150 4550 7150
Connection ~ 3700 7350
Wire Wire Line
	3700 7350 4550 7350
Text HLabel 9350 3800 0    50   Input ~ 0
GND
Wire Wire Line
	9350 3800 9550 3800
Text HLabel 9350 4000 0    50   Input ~ 0
GND
Wire Wire Line
	9350 4000 9550 4000
Text HLabel 9350 4300 0    50   Input ~ 0
VCC2V5
Wire Wire Line
	9350 4300 9550 4300
Text HLabel 6450 4200 0    50   Input ~ 0
VCC1V8
Wire Wire Line
	6450 4200 6900 4200
Text HLabel 3650 4300 0    50   Input ~ 0
VCC2V5
Wire Wire Line
	3650 4300 4400 4300
Text HLabel 950  3900 0    50   Input ~ 0
VCC1V8
Wire Wire Line
	950  3900 1700 3900
NoConn ~ 1700 2800
NoConn ~ 1700 2900
NoConn ~ 1700 3000
NoConn ~ 1700 3100
NoConn ~ 1700 3200
NoConn ~ 1700 3300
NoConn ~ 1700 3400
NoConn ~ 1700 3500
NoConn ~ 1700 3600
NoConn ~ 1700 3700
NoConn ~ 1700 3800
NoConn ~ 1700 4000
NoConn ~ 1700 4100
NoConn ~ 1700 4200
NoConn ~ 1700 4300
NoConn ~ 1700 4400
NoConn ~ 1700 4500
NoConn ~ 1700 4600
NoConn ~ 1700 4700
NoConn ~ 1700 4800
NoConn ~ 4400 3400
NoConn ~ 4400 3500
NoConn ~ 4400 3600
NoConn ~ 4400 4600
NoConn ~ 6900 3100
NoConn ~ 6900 3200
NoConn ~ 6900 3300
NoConn ~ 6900 4300
NoConn ~ 6900 4400
NoConn ~ 6900 4500
NoConn ~ 6900 4600
NoConn ~ 6900 4700
NoConn ~ 6900 4800
NoConn ~ 9550 2900
NoConn ~ 9550 3000
NoConn ~ 9550 3900
NoConn ~ 9550 4100
Text HLabel 9250 4200 0    50   Input ~ 0
GBTX_RXRDY
Text HLabel 9250 4400 0    50   Input ~ 0
GBTX_RXDATAVALID
Wire Wire Line
	9250 4400 9550 4400
Wire Wire Line
	9250 4200 9550 4200
NoConn ~ 9550 3500
$Comp
L gbtx:igloo U?
U 2 1 5DF62165
P 7350 2800
F 0 "U?" H 7000 2750 50  0000 L CNN
F 1 "igloo" H 7650 2750 50  0000 L CNN
F 2 "" H 7350 2800 50  0001 C CNN
F 3 "" H 7350 2800 50  0001 C CNN
	2    7350 2800
	1    0    0    -1  
$EndComp
Text HLabel 6400 3400 0    50   Output ~ 0
IGLOO_TMS_REM
Text HLabel 6400 3500 0    50   Output ~ 0
IGLOO_TDI_REM
Text HLabel 6400 3600 0    50   Output ~ 0
IGLOO_RST_REM
Text HLabel 6400 3700 0    50   Output ~ 0
IGLOO_TCK_REM
Text HLabel 6400 3800 0    50   Output ~ 0
IGLOO_TMS_LOC
Text HLabel 6400 3900 0    50   Output ~ 0
IGLOO_TDI_LOC
Text HLabel 6400 4000 0    50   Output ~ 0
IGLOO_RST_LOC
Text HLabel 6400 4100 0    50   Output ~ 0
IGLOO_TCK_LOC
Wire Wire Line
	6400 3400 6900 3400
Wire Wire Line
	6400 3500 6900 3500
Wire Wire Line
	6400 3600 6900 3600
Wire Wire Line
	6400 3700 6900 3700
Wire Wire Line
	6400 3800 6900 3800
Wire Wire Line
	6400 3900 6900 3900
Wire Wire Line
	6900 4000 6400 4000
Wire Wire Line
	6400 4100 6900 4100
$EndSCHEMATC
